No,Nama Provinsi,Nama Kota/Kabupaten,Terkonfirmasi,Sembuh,Meninggal
1,DKI Jakarta,Jakarta Utara,9484,7897,219
2,DKI Jakarta,Jakarta Timur,14202,11227,300
3,DKI Jakarta,Jakarta Pusat,10078,8555,278
4,DKI Jakarta,Jakarta Barat,11633,9134,279
5,DKI Jakarta,Jakarta Selatan,11132,8457,237
6,DKI Jakarta,Kepulauan Seribu,81,70,0