No.,Nama Provinsi,Nama Kota/Kabupaten,Terkonfirmasi,Sembuh,Meninggal
1,Jawa Barat,Kota Bekasi,4974,3183,100
2,Jawa Barat,Kota Depok,4522,2826,89
3,Jawa Barat,Kabupaten Bekasi,3039,2131,43
4,Jawa Barat,Kabupaten Bogor,2330,927,16
5,Jawa Barat,Kota Bandung,1808,1215,50
6,Jawa Barat,Kota Bogor,1605,1019,39
7,Jawa Barat,Kabupaten Karawang,993,662,32
8,Jawa Barat,Kabupaten Cirebon,982,592,53
9,Jawa Barat,Kabupaten Bandung,763,571,12
10,Jawa Barat,Kabupaten Kuningan,691,178,7
11,Jawa Barat,Kota Cimahi,469,277,4
12,Jawa Barat,Kabupaten Sukabumi,326,178,4
13,Jawa Barat,Kota Sukabumi,320,239,3
14,Jawa Barat,Kabupaten Bandung Barat,316,194,6
15,Jawa Barat,Kabupaten Garut,296,222,13
16,Jawa Barat,Kota Cirebon,281,166,12
17,Jawa Barat,Kabupaten Purwakarta,270,215,7
18,Jawa Barat,Kabupaten Subang,255,223,12
19,Jawa Barat,Kabupaten Majalengka,172,107,7
20,Jawa Barat,Kabupaten Indramayu,158,113,7
21,Jawa Barat,Kabupaten Ciamis,124,55,5
22,Jawa Barat,Kabupaten Sumedang,124,89,1
23,Jawa Barat,Kabupaten Cianjur,93,75,2
24,Jawa Barat,Kota Tasikmalaya,69,55,3
25,Jawa Barat,Kabupaten Pangadaran,67,65,0
26,Jawa Barat,Kabupaten Tasikmalaya,59,43,2
27,Jawa Barat,Kota Banjar,40,10,1