No,Nama Provinsi,Nama Kota/Kabupaten,Terkonfirmasi,Sembuh,Meninggal
1,Kalimantan Selatan,Tabalong,418,410,8
2,Kalimantan Selatan,Balangan,770,673,88
3,Kalimantan Selatan,Hulu Sungai Utara,496,450,20
4,Kalimantan Selatan,Hulu Sungai Tengah,613,517,43
5,Kalimantan Selatan,Hulu Sungai Selatan,435,373,26
6,Kalimantan Selatan,Tapin,398,362,9
7,Kalimantan Selatan,Barito Kuala,649,621,8
8,Kalimantan Selatan,Banjarmasin,3401,2907,162
9,Kalimantan Selatan,Banjar,834,745,51
10,Kalimantan Selatan,Banjar Baru,1052,928,53
11,Kalimantan Selatan,Tanah Laut,1077,965,25
12,Kalimantan Selatan,Tanab Bumbu,452,416,11
13,Kalimantan Selatan,Kota Baru,431,267,16