No.,Nama Provinsi,Nama Kota/Kabupaten,Terkonfirmasi,Sembuh,Meninggal
1,Sulawesi Barat,Pasangkayu,13,12,1
2,Sulawesi Barat,Mamuju,253,156,2
3,Sulawesi Barat,Majene,58,56,0
4,Sulawesi Barat,Palewali Mandar,223,135,7
5,Sulawesi Barat,Mamasa,24,12,0
6,Sulawesi Barat,Mamuju Tengah,46,45,1